module github.com/homeport/dyff

go 1.20

require (
	github.com/davecgh/go-spew v1.1.1
	github.com/gonvenience/bunt v1.3.5
	github.com/gonvenience/neat v1.3.12
	github.com/gonvenience/term v1.0.2
	github.com/gonvenience/text v1.0.7
	github.com/gonvenience/wrap v1.2.0
	github.com/gonvenience/ytbx v1.4.4
	github.com/lucasb-eyer/go-colorful v1.2.0
	github.com/mitchellh/hashstructure v1.1.0
	github.com/onsi/ginkgo/v2 v2.13.0
	github.com/onsi/gomega v1.29.0
	github.com/sergi/go-diff v1.3.1
	github.com/spf13/cobra v1.8.0
	github.com/texttheater/golang-levenshtein v1.0.1
	gopkg.in/yaml.v3 v3.0.1
)

require (
	github.com/BurntSushi/toml v1.3.2 // indirect
	github.com/go-logr/logr v1.2.4 // indirect
	github.com/go-task/slim-sprig v0.0.0-20230315185526-52ccab3ef572 // indirect
	github.com/google/go-cmp v0.6.0 // indirect
	github.com/google/pprof v0.0.0-20230602150820-91b7bce49751 // indirect
	github.com/inconshreveable/mousetrap v1.1.0 // indirect
	github.com/mattn/go-ciede2000 v0.0.0-20170301095244-782e8c62fec3 // indirect
	github.com/mattn/go-isatty v0.0.19 // indirect
	github.com/mitchellh/go-ps v1.0.0 // indirect
	github.com/spf13/pflag v1.0.5 // indirect
	github.com/stretchr/testify v1.8.4 // indirect
	github.com/virtuald/go-ordered-json v0.0.0-20170621173500-b18e6e673d74 // indirect
	golang.org/x/net v0.17.0 // indirect
	golang.org/x/sync v0.4.0 // indirect
	golang.org/x/sys v0.13.0 // indirect
	golang.org/x/term v0.13.0 // indirect
	golang.org/x/text v0.13.0 // indirect
	golang.org/x/tools v0.14.0 // indirect
	gopkg.in/yaml.v2 v2.4.0 // indirect
)
